{"worksheets":[{"id":"574e931d-4412-4188-8421-f7273a2a2c80","slug":"y5-thousandths-p4","title":"Thousandths (Practice 4 - Weather Theme)","html_content":"<!DOCTYPE html>\n<html>\n<head>\n<title>Thousandths Worksheet</title>\n<style>\nbody{font-family:'Comic Sans MS',cursive,sans-serif;font-size:15pt;padding:15px 20px;line-height:1.4;margin:0;background:#fff}\n.worksheet-header{text-align:center;margin-bottom:15px;padding-bottom:10px;border-bottom:3px solid #4169E1}\n.worksheet-title{font-size:20pt;color:#2c3e50;margin:0}\n.worksheet-details{font-size:10pt;color:#666;margin-top:5px}\n.layout-badge{display:inline-block;background:#9C27B0;color:white;padding:2px 8px;border-radius:10px;font-size:9pt;margin-left:10px}\n.section-header{display:flex;align-items:center;gap:10px;margin:15px 0 8px 0;padding:6px 10px;border-radius:6px;font-weight:bold}\n.section-letter{display:inline-flex;align-items:center;justify-content:center;width:24px;height:24px;border-radius:50%;color:white;font-size:12pt}\n.section-title{font-size:12pt}\n.section-fluency{background:#E3F2FD;border-left:4px solid #2196F3}\n.section-fluency .section-letter{background:#2196F3}\n.section-application{background:#F3E5F5;border-left:4px solid #9C27B0}\n.section-application .section-letter{background:#9C27B0}\n.section-reasoning{background:#FFF3E0;border-left:4px solid #FF9800}\n.section-reasoning .section-letter{background:#FF9800}\n.question{margin:10px 0;padding:12px;border-radius:8px}\n.q-fluency{background:#E3F2FD}\n.q-application{background:#F3E5F5}\n.q-reasoning{background:#FFF3E0}\n.question-number{display:inline-block;background:#4169E1;color:white;width:26px;height:26px;line-height:26px;text-align:center;border-radius:50%;margin-right:8px;font-weight:bold;font-size:13pt}\n.question-text{font-size:15pt;margin:5px 0;font-weight:600}\n.sub-question{font-size:14pt;margin:8px 0 8px 10px}\n.pv-chart{display:inline-table;margin:15px auto;border-collapse:separate;border-spacing:0;border:3px solid #333;border-radius:6px;overflow:hidden}\n.pv-row{display:table-row}\n.pv-cell{display:table-cell;padding:12px 18px;text-align:center;font-size:24pt;font-weight:bold;border:2px solid #333;min-width:60px}\n.pv-header{background:#333;color:#FFF;font-size:14pt;padding:8px 18px}\n.pv-ones{background:#FFF3E0;color:#F57C00}\n.pv-point{background:#FCE4EC;color:#E91E63;font-size:32pt}\n.pv-tenths{background:#E3F2FD;color:#1976D2}\n.pv-hundredths{background:#E8F5E9;color:#388E3C}\n.pv-thousandths{background:#F3E5F5;color:#7B1FA2}\n.decimal-display{font-size:36pt;font-weight:bold;text-align:center;margin:15px 0;font-family:'Courier New',monospace}\n.decimal-grid{display:grid;grid-template-columns:repeat(2,1fr);gap:15px;margin:12px 0}\n.decimal-item{padding:15px;border:2px solid #2196F3;border-radius:8px;background:#fff;text-align:center}\n.word-problem-box{background:#FFF8E1;border:2px solid #FFB300;border-radius:8px;padding:12px;margin:10px 0}\n.character-icon{font-size:28pt;margin-right:8px}\n.story-text{font-size:14pt;color:#333;line-height:1.5}\n.reasoning-box{background:#E8F5E9;border:2px solid #66BB6A;border-radius:8px;padding:12px;margin:10px 0}\n.error-box{background:#FFEBEE;border:2px solid #EF5350;border-radius:8px;padding:12px;margin:10px 0}\n.comparison-box{display:flex;align-items:center;justify-content:center;gap:15px;margin:15px 0;flex-wrap:wrap}\n.comp-decimal{padding:15px 25px;background:#FFF;border:3px solid #9C27B0;border-radius:8px;font-size:28pt;font-weight:bold;color:#7B1FA2;font-family:'Courier New',monospace}\n.comp-symbol{min-width:50px;height:50px;border:3px solid #FF9800;border-radius:50%;background:#FFF;font-size:32pt;line-height:50px;text-align:center;color:#E65100}\n.answer-box{display:inline-block;min-width:50px;height:34px;border:2px solid #333;border-radius:5px;background:#FFF9C4;vertical-align:middle;margin:0 5px}\n.answer-box-small{display:inline-block;min-width:35px;height:30px;border:2px solid #333;border-radius:5px;background:#FFF9C4;vertical-align:middle;margin:0 3px}\n.answer-box-word{display:inline-block;min-width:80px;height:34px;border:2px solid #333;border-radius:5px;background:#FFF9C4;vertical-align:middle;margin:0 5px}\n.answer-box-large{display:inline-block;min-width:100px;height:40px;border:2px solid #333;border-radius:5px;background:#FFF9C4;vertical-align:middle;margin:0 5px;font-size:20pt}\n.answer-key{margin-top:25px;padding:12px;background:#f0f8ff;border:2px solid #4169E1;border-radius:8px;page-break-before:always}\n.answer-key h2{font-size:13pt;font-weight:bold;color:#2c3e50;margin:0 0 8px 0;text-align:center}\n.answer-key p{font-size:11pt;margin:4px 0;line-height:1.5}\n</style>\n</head>\n<body>\n<div style=\"position: absolute; top: 10px; right: 10px; font-size: 10pt; color: #666; font-family: Arial, sans-serif; z-index: 1000; background: rgba(255, 255, 255, 0.9); padding: 2px 6px; border-radius: 3px;\">\n  © freemathprintable.com\n</div>\n\n\n<div class=\"worksheet-header\">\n  <h1 class=\"worksheet-title\">Thousandths <span class=\"layout-badge\">Mixed Layout</span></h1>\n  <p class=\"worksheet-details\">Year 5 | Ages 9-10 | average WS1: Foundation</p>\n</div>\n\n<div class=\"section-header section-fluency\">\n  <span class=\"section-letter\">A</span>\n  <span class=\"section-title\">Fluency</span>\n</div>\n\n<div class=\"question q-fluency\">\n  <p class=\"question-text\"><span class=\"question-number\">1</span>Complete the place value chart for 2.345</p>\n  <table class=\"pv-chart\">\n    <tr class=\"pv-row\">\n      <td class=\"pv-cell pv-header\">O</td>\n      <td class=\"pv-cell pv-header\">.</td>\n      <td class=\"pv-cell pv-header\">T</td>\n      <td class=\"pv-cell pv-header\">H</td>\n      <td class=\"pv-cell pv-header\">Th</td>\n    </tr>\n    <tr class=\"pv-row\">\n      <td class=\"pv-cell pv-ones\"><input type=\"text\" class=\"answer-box-small\" data-answer=\"2\"></td>\n      <td class=\"pv-cell pv-point\">.</td>\n      <td class=\"pv-cell pv-tenths\"><input type=\"text\" class=\"answer-box-small\" data-answer=\"3\"></td>\n      <td class=\"pv-cell pv-hundredths\"><input type=\"text\" class=\"answer-box-small\" data-answer=\"4\"></td>\n      <td class=\"pv-cell pv-thousandths\"><input type=\"text\" class=\"answer-box-small\" data-answer=\"5\"></td>\n    </tr>\n  </table>\n</div>\n\n<div class=\"question q-fluency\">\n  <p class=\"question-text\"><span class=\"question-number\">2</span>Write \"Three point four five six\" as a decimal.</p>\n  <div class=\"decimal-grid\" style=\"grid-template-columns:1fr;\">\n    <div class=\"decimal-item\">\n      <p style=\"margin-bottom:5px;\">Three point four five six</p>\n      <p><input type=\"text\" class=\"answer-box-large\" data-answer=\"3.456\"></p>\n    </div>\n  </div>\n</div>\n\n<div class=\"section-header section-application\">\n  <span class=\"section-letter\">B</span>\n  <span class=\"section-title\">Application</span>\n</div>\n\n<div class=\"question q-application\">\n  <p class=\"question-text\"><span class=\"question-number\">3</span>Compare the sprint times.</p>\n  <div class=\"word-problem-box\">\n    <span class=\"character-icon\">🏃</span>\n    <span class=\"story-text\">Amy ran 100m in <strong>12.345 seconds</strong>. Ben ran it in <strong>12.354 seconds</strong>.</span>\n  </div>\n  <p class=\"sub-question\">a) Which time is faster? <input type=\"text\" class=\"answer-box\" data-answer=\"12.345\"> seconds</p>\n  <p class=\"sub-question\">b) Which place value is different? The <input type=\"text\" class=\"answer-box-word\" data-answer=\"Hundredths\"> place</p>\n  <p class=\"sub-question\">c) Amy's hundredths digit: <input type=\"text\" class=\"answer-box-small\" data-answer=\"4\"></p>\n  <p class=\"sub-question\">d) Ben's hundredths digit: <input type=\"text\" class=\"answer-box-small\" data-answer=\"5\"></p>\n</div>\n\n<div class=\"question q-application\">\n  <p class=\"question-text\"><span class=\"question-number\">4</span>Order these times from fastest to slowest.</p>\n  <div class=\"comparison-box\">\n    <span class=\"comp-decimal\">1.234s</span>\n    <span class=\"comp-decimal\">1.243s</span>\n    <span class=\"comp-decimal\">1.324s</span>\n  </div>\n  <p class=\"sub-question\">Fastest: <input type=\"text\" class=\"answer-box\" data-answer=\"1.234\">s</p>\n  <p class=\"sub-question\">Middle: <input type=\"text\" class=\"answer-box\" data-answer=\"1.243\">s</p>\n  <p class=\"sub-question\">Slowest: <input type=\"text\" class=\"answer-box\" data-answer=\"1.324\">s</p>\n</div>\n\n<div class=\"section-header section-reasoning\">\n  <span class=\"section-letter\">C</span>\n  <span class=\"section-title\">Reasoning</span>\n</div>\n\n<div class=\"question q-reasoning\">\n  <p class=\"question-text\"><span class=\"question-number\">5</span>Find the mistake.</p>\n  <div class=\"error-box\">\n    <p><strong>Jake wrote:</strong></p>\n    <p style=\"font-size:18pt;text-align:center;margin:10px 0;\">\"Three thousandths = 0.3\"</p>\n    <p style=\"color:#E91E63;text-align:center;\">❌</p>\n  </div>\n  <p class=\"sub-question\">a) Is Jake correct? <input type=\"text\" class=\"answer-box-word\" data-answer=\"No\"></p>\n  <p class=\"sub-question\">b) What should three thousandths be? <input type=\"text\" class=\"answer-box\" data-answer=\"0.003\"></p>\n</div>\n\n<div class=\"answer-key\">\n  <h2>Answer Key</h2>\n  <p><strong>1.</strong> 2, 3, 4, 5</p>\n  <p><strong>2.</strong> 3.456</p>\n  <p><strong>3.</strong> 12.345, Hundredths, 4, 5</p>\n  <p><strong>4.</strong> 1.234, 1.243, 1.324</p>\n  <p><strong>5.</strong> No, 0.003</p>\n</div>\n\n</body>\n</html>","region":"UK","year_group":"Year 5","topic":"decimals","subtopic":"thousandths","difficulty":"average","question_count":5,"layout_type":"mixed","visual_theme":"default","activity_type":null,"seasonal_theme":null,"worksheet_version":null,"thumbnail_url":"https://ik.imagekit.io/4m3l6zvgx/worksheets/thumbnails/y5-thousandths-p4-1766358155851-thumb.webp","preview_images":[],"seo_title":"Thousandths (Practice 4 - Weather Theme) - Free Printa...","seo_description":"Download free Year 5 (Grade 5) decimals worksheet featuring default. Perfect for classroom or homeschool learning. Print-ready PDF.","seo_keywords":["year 5","grade 5","decimals","thousandths","default","worksheet","free","printable","educational","math worksheet","homeschool","classroom"],"quality_score":null,"tags":["year-5","grade-5","decimals","thousandths","default","free","printable"],"status":"published","published_at":null,"published_by":null,"view_count":0,"download_count":0,"last_downloaded_at":null,"created_at":"2025-12-21T23:02:42.991862+00:00","updated_at":"2025-12-21T23:03:15.128285+00:00","learning_objectives":["Identify the place value of digits in numbers with thousandths.","Read, write, and represent numbers with thousandths in decimal and fraction form.","Compare and order numbers with thousandths.","Round numbers with thousandths to the nearest tenth and hundredth.","Solve simple problems involving numbers with thousandths."],"how_to_use":"This worksheet is designed to provide Year 5 pupils with practice in understanding and working with thousandths. It can be used as a follow-up activity after introducing the concept of thousandths, or as a revision tool. \n\nFor pupils who are struggling, consider using concrete manipulatives such as place value counters or base ten blocks to represent thousandths visually. Encourage them to verbalise their thinking as they work through the problems. For pupils who are confident, challenge them to create their own problems involving thousandths, or to explore the relationship between thousandths and fractions. A common mistake is confusing the place value of the digits after the decimal point. Remind pupils to carefully consider the position of each digit. Extension activities could include researching real-world examples of where thousandths are used, such as in sports timing or scientific measurements.","educational_benefits":"This Year 5 decimals worksheet focuses specifically on the subtopic of thousandths, providing essential practice for mastering this key mathematical concept. Understanding thousandths is crucial for building a strong foundation in decimals and fractions, which are fundamental skills in the UK primary curriculum. This worksheet allows pupils to develop their understanding of place value, enabling them to confidently read, write, compare, and order numbers with thousandths. By working through these practice problems, pupils will strengthen their ability to visualise and manipulate decimal numbers, enhancing their number sense. The skills developed through this worksheet are directly aligned with the Year 5 national curriculum objectives for decimals. Furthermore, the worksheet promotes problem-solving skills as pupils apply their knowledge of thousandths to solve practical questions. Successfully completing this worksheet will boost pupils' confidence in their mathematical abilities, preparing them for more advanced topics in Year 6 and beyond. This Year 5 decimals worksheet on thousandths is a valuable resource for reinforcing learning, identifying areas for improvement, and building a solid understanding of decimals. It provides targeted practice that will help pupils develop fluency and confidence in working with thousandths, a crucial skill for future mathematical success. The worksheet allows for independent practice, allowing students to consolidate their understanding of decimals and thousandths at their own pace. It is a valuable tool for any Year 5 teacher looking to enhance their pupils' understanding of decimals.","skills_developed":["Understanding place value (thousandths)","Converting between decimals and fractions (thousandths)","Problem-solving with decimals","Logical reasoning"],"estimated_time_minutes":25,"curriculum_standards":["Read, write, order and compare numbers with up to three decimal places.","Recognise the place value of each digit in a number with up to three decimal places."],"faq":[{"answer":"This worksheet is specifically designed for Year 5 pupils (ages 9-10) who are learning about decimals and thousandths.","question":"What age is this worksheet suitable for?"},{"answer":"This worksheet helps develop skills in understanding place value, converting between decimals and fractions, and problem-solving with decimals, specifically focusing on thousandths.","question":"What skills does this worksheet help develop?"},{"answer":"This worksheet is estimated to take around 25 minutes to complete, depending on the pupil's individual pace and understanding.","question":"How long does this worksheet take to complete?"},{"answer":"Yes, you can generate similar worksheets with different themes and difficulty levels using our worksheet generator. This allows you to tailor the content to meet the specific needs of your pupils.","question":"Can I customize this worksheet?"}],"mascots":[],"alt_text":null}],"total_count":585,"has_more":true,"filters_applied":{"sort_by":"newest","limit":1,"offset":0}}